…
To combine “tidyexpectancy” and “tidyhappy” datasets, I used an inner_join by country matching. Because both datasets have the variable “Country” in common, an inner_join would only select the countires appeared in both datasets for the return data, which paring up the two datasets. Since not all countries were shared, some cases were dropped by inner_join spontaneously. 15 cases from “tidyhappy” and 82 cases from “tidyexpectancy” were dropped. The potential problem with dropping cases could be disrupting the original ranking in either dataset.

3. Wrangling

project0 <- project %>% rename("Happiness"=Happiness.score,"GDP"=GDP.per.capita,"Freedom"=Freedom.to.make.life.choices,"Expectancy"=Overall.Life)
project0 %>% filter(Country=="United States")

## # A tibble: 1 x 6
##   Country       Happiness   GDP Freedom Expectancy Continent    
##   <chr>             <dbl> <dbl>   <dbl>      <dbl> <chr>        
## 1 United States      6.89  1.43   0.454       79.8 North America

project0 %>% select(Country,GDP) %>% arrange(desc(GDP))

## # A tibble: 141 x 2
##    Country                GDP
##    <chr>                <dbl>
##  1 Qatar                 1.68
##  2 Luxembourg            1.61
##  3 Singapore             1.57
##  4 United Arab Emirates  1.50
##  5 Kuwait                1.5 
##  6 Ireland               1.50
##  7 Norway                1.49
##  8 Switzerland           1.45
##  9 United States         1.43
## 10 Saudi Arabia          1.40
## # … with 131 more rows
project0 %>% group_by(Continent) %>% summarize(mean(Happiness),mean(GDP),mean(Freedom),mean(Expectancy))

## # A tibble: 6 x 5
##   Continent     `mean(Happiness)` `mean(GDP)` `mean(Freedom)` `mean(Expectancy)`
##   <chr>                     <dbl>       <dbl>           <dbl>              <dbl>
## 1 Africa                     4.38       0.512           0.336               61.0
## 2 Asia                       5.32       0.977           0.408               73.2
## 3 Europe                     6.21       1.22            0.407               78.2
## 4 North America              6.15       0.929           0.455               75.1
## 5 Oceania                    7.27       1.34            0.571               81.7
## 6 South America              5.92       0.983           0.434               75.5

project0 %>% mutate(total_score=Happiness+Expectancy) %>% arrange(desc(total_score))

## # A tibble: 141 x 7
##    Country     Happiness   GDP Freedom Expectancy Continent     total_score
##    <chr>           <dbl> <dbl>   <dbl>      <dbl> <chr>               <dbl>
##  1 Singapore        6.26  1.57   0.556       85   Asia                 91.3
##  2 Japan            5.89  1.33   0.445       85   Asia                 90.9
##  3 Iceland          7.49  1.38   0.591       83   Europe               90.5
##  4 Switzerland      7.48  1.45   0.572       82.6 Europe               90.1
##  5 Israel           7.14  1.28   0.371       82.4 Asia                 89.5
##  6 Sweden           7.34  1.39   0.574       82.1 Europe               89.4
##  7 Australia        7.23  1.37   0.557       82.2 Oceania              89.4
##  8 Luxembourg       7.09  1.61   0.526       82.3 Europe               89.4
##  9 Norway           7.55  1.49   0.603       81.8 Europe               89.4
## 10 Canada           7.28  1.36   0.584       81.9 North America        89.2
## # … with 131 more rows
…
